[gd_scene load_steps=2 format=2]

[ext_resource path="res://scripts/MouseCapture.gd" type="Script" id=1]

[node name="MouseCapture" type="Control"]
margin_right = 340.0
margin_bottom = 370.0
script = ExtResource( 1 )

[node name="Outline" type="ColorRect" parent="."]
margin_right = 340.0
margin_bottom = 340.0
mouse_filter = 2
color = Color( 0, 0, 0, 1 )

[node name="ViewportContainer" type="ViewportContainer" parent="."]
margin_left = 10.0
margin_top = 10.0
margin_right = 330.0
margin_bottom = 330.0
rect_min_size = Vector2( 320, 320 )
mouse_filter = 2

[node name="Drawport" type="Viewport" parent="ViewportContainer"]
size = Vector2( 320, 320 )
handle_input_locally = false
render_target_update_mode = 3

[node name="Line2D" type="Line2D" parent="ViewportContainer/Drawport"]
light_mask = 2
width = 15.0
default_color = Color( 0, 0, 0, 1 )

[node name="TextureRect" type="TextureRect" parent="."]
margin_left = 10.0
margin_top = 10.0
margin_right = 330.0
margin_bottom = 330.0
mouse_filter = 2

[node name="Submit" type="Button" parent="."]
margin_left = 20.0
margin_top = 340.0
margin_right = 150.0
margin_bottom = 370.0
text = "Submit"

[node name="Clear" type="Button" parent="."]
margin_left = 180.0
margin_top = 340.0
margin_right = 320.0
margin_bottom = 370.0
text = "Clear"
[connection signal="mouse_entered" from="." to="." method="_on_MouseCapture_mouse_entered"]
[connection signal="mouse_exited" from="." to="." method="_on_MouseCapture_mouse_exited"]
[connection signal="pressed" from="Submit" to="." method="_on_Submit_pressed"]
[connection signal="pressed" from="Clear" to="." method="_on_Clear_pressed"]
